Gracia Larsen-Schmidt - Boston Marathon Data Over Time
…
[[1]]
# A tibble: 0 × 5
# ℹ 5 variables:  <lgl>,  <lgl>,  <lgl>,  <lgl>,  <lgl>

[[2]]
# A tibble: 0 × 1
# ℹ 1 variable: 2024 BOSTON MARATHON STATISTICS <lgl>

[[3]]
# A tibble: 0 × 1
# ℹ 1 variable:
#   Links under Geographic Breakdown provide additional detail. <lgl>

[[4]]
# A tibble: 79 × 396
   Category\r\n\t\t\t\t\r\n\t\t\t\t…¹ Category `Number Entered` `Number Started`
   <chr>                              <chr>    <chr>            <chr>           
 1 "Category"                         "Number… "Number Started" "Number Finishe…
 2 ""                                 ""       ""               ""              
 3 "Runners"                          "Runner… "Runners"        "Runners"       
 4 "all"                              "29333"  "26495"          "25554"         
 5 "male"                             "16714"  "15017"          "14578"         
 6 "female"                           "12566"  "11429"          "10928"         
 7 "non-binary"                       "53"     "49"             "48"            
 8 "Wheelchairs"                      "Wheelc… "Wheelchairs"    "Wheelchairs"   
 9 "all"                              "49"     "48"             "47"            
10 "male"                             "31"     "30"             "29"            
# ℹ 69 more rows
# ℹ abbreviated name:
…
[[5]]
# A tibble: 78 × 5
   Category      `Number Entered` `Number Started` `Number Finished`
   <chr>         <chr>            <chr>            <chr>            
 1 ""            ""               ""               ""               
 2 "Runners"     "Runners"        "Runners"        "Runners"        
 3 "all"         "29333"          "26495"          "25554"          
 4 "male"        "16714"          "15017"          "14578"          
 5 "female"      "12566"          "11429"          "10928"          
 6 "non-binary"  "53"             "49"             "48"             
 7 "Wheelchairs" "Wheelchairs"    "Wheelchairs"    "Wheelchairs"    
 8 "all"         "49"             "48"             "47"             
 9 "male"        "31"             "30"             "29"             
10 "female"      "18"             "18"             "18"             
# ℹ 68 more rows
# ℹ 1 more variable: `Percent Finished` <chr>

# A tibble: 78 × 5
   Category      `Number Entered` `Number Started` `Number Finished`
   <chr>         <chr>            <chr>            <chr>            
 1 ""            ""               ""               ""               
 2 "Runners"     "Runners"        "Runners"        "Runners"        
 3 "all"         "29333"          "26495"          "25554"          
 4 "male"        "16714"          "15017"          "14578"          
 5 "female"      "12566"          "11429"          "10928"          
 6 "non-binary"  "53"             "49"             "48"             
 7 "Wheelchairs" "Wheelchairs"    "Wheelchairs"    "Wheelchairs"    
 8 "all"         "49"             "48"             "47"             
 9 "male"        "31"             "30"             "29"             
10 "female"      "18"             "18"             "18"             
# ℹ 68 more rows
# ℹ 1 more variable: `Percent Finished` <chr>

# A tibble: 78 × 5
   Category      `Number Entered` `Number Started` `Number Finished`
   <chr>         <chr>            <chr>            <chr>            
 1 ""            ""               ""               ""               
 2 "Runners"     "Runners"        "Runners"        "Runners"        
 3 "all"         "29333"          "26495"          "25554"          
 4 "male"        "16714"          "15017"          "14578"          
 5 "female"      "12566"          "11429"          "10928"          
 6 "non-binary"  "53"             "49"             "48"             
 7 "Wheelchairs" "Wheelchairs"    "Wheelchairs"    "Wheelchairs"    
 8 "all"         "49"             "48"             "47"             
 9 "male"        "31"             "30"             "29"             
10 "female"      "18"             "18"             "18"             
# ℹ 68 more rows
# ℹ 1 more variable: `Percent Finished` <chr>
…
